’R’mut Group Project
…
tmp2 <- tempfile(fileext = ".csv")
download.file("https://github.com/pjournal/mef03g-r-mut/raw/master/project_datasets/USD_TRY.csv",destfile = tmp2)
usd_tl <- read_csv(tmp2)

str(tcmb_int_table)

## Classes 'tbl_df', 'tbl' and 'data.frame':    20 obs. of  2 variables:
##  $ year: POSIXct, format: "2010-05-20" "2010-12-17" ...
##  $ rate: num  7 6.5 6.25 5.75 5.5 5 4.5 10 9.5 8.75 ...

usd_tl

## # A tibble: 120 x 6
##    Date   Price  Open  High   Low `Change %`
##    <chr>  <dbl> <dbl> <dbl> <dbl> <chr>     
##  1 Dec 19  5.78  5.75  5.79  5.73 0.54%     
##  2 Nov 19  5.75  5.71  5.79  5.68 0.60%     
##  3 Oct 19  5.71  5.65  5.94  5.64 1.13%     
##  4 Sep 19  5.65  5.83  5.84  5.63 -3.12%    
##  5 Aug 19  5.83  5.58  5.86  5.44 4.37%     
##  6 Jul 19  5.59  5.79  5.79  5.50 -3.55%    
##  7 Jun 19  5.79  5.84  5.94  5.67 -0.79%    
##  8 May 19  5.84  5.97  6.25  5.81 -2.14%    
##  9 Apr 19  5.97  5.56  5.99  5.41 7.38%     
## 10 Mar 19  5.56  5.35  5.86  5.28 4.09%     
## # … with 110 more rows
…
I need convert date column format for easy using

usd_tl_dp <- usd_tl %>% select("Date","Price") 

usd_tl_dp

## # A tibble: 120 x 2
##    Date   Price
##    <chr>  <dbl>
##  1 Dec 19  5.78
##  2 Nov 19  5.75
##  3 Oct 19  5.71
##  4 Sep 19  5.65
##  5 Aug 19  5.83
##  6 Jul 19  5.59
##  7 Jun 19  5.79
##  8 May 19  5.84
##  9 Apr 19  5.97
## 10 Mar 19  5.56
## # … with 110 more rows
…
